#		#No-speculation			#Default			#Hierarchical			#Late
#"No-spec"	
"100"		183389.80  178740 193814	182153.67  171004 194635	180020.00  170352 194559		
"95"		203588.60  184760 229356	188113.60  171960 198946	186488.20  170980 204921
"90"		208007.60  174062 223969	180414.75  171839 184466	198626.60  185076 228986
"75"		238057.40  208786 242945	178829.00  174024 180075	231518.60  222321 245225
"50"		263463.67  253888 269394	185587.25  180065 194630	242283.20  238254 255651
"Shared"	253453.33  245898 258324	175567.5   173085 180301	232224.25  228144 243652